{

  "id": "",


  "className": "",


  "theme": "",

  "options": {
    "multiple": "false:expand_one,true:expand_many"
  },


  "content": [
    {
      "title": "",
      "content": "",
      "active": "false:inactive,true:active",

      "disabled": "false:enable,true:disable}"
    }
  ]
}