{
    "id": "",

  "className": "",

    "theme": "",

    "options": {
        "leftCols": "",
        "RightCols": "",
        "position":""
    },

    "content": {
        "title": "",
        "more": {
          "link": "",
          "title": "",
          "className": ""
        },
        "left": "",
        "right": ""
    }
}