{
  "id": "",

  "className": "",

  "theme": "default",

  "options": {
      "cols": ""
  },

  "content": [
    {
      "title": "",
      "link": "",
      "className": "",
      "customIcon": "",
      "icon": "",
      "dataApi": ""
      }
  ]
}