{

  "id": "",


  "className": "",


  "theme": "",


  "sliderConfig": "json",


  "content": [
    {
      "img": "",
      "link": "",
      "className": "",
      "thumb": "",
      "desc": ""
    }
  ]
}


