{
  "id": "",

  "className": "",

  "theme": "",

  "options": "null",

  "content": {
    "title": "",
    "link": "",
    "className": "",
    "nav": [
      {
        "link": "",
        "title": "",
        "className": ""
      }
    ]
  }
}