{
    "host":"http://api.gogoinfo.cn",
    "prefix":"",
    "version":"1",
    "api":[
        {
            "desc":"登录认证",
            "cat":"认证",
            "method":"GET",
            "url":"/user/auth.json",
            "parameters":{
                "username":"username###xiaoming",
                "password":"password###123456"
            },
            "return":{
                "code": "返回代码###1",
                "msg": "返回信息###成功",
                "data":{
                    "access_token":"access_token###fhiojaspjdwefasfpodasf"
                }
            }
        },
        {
            "desc":"注册用户",
            "cat":"认证",
            "method":"POST",
            "url":"/user/auth.json",
            "parameters":{
                "username":"username###xiaoming",
                "password":"password###123456"

            },
             "return":{
                "code": "返回代码###1",
                "msg": "返回信息###成功",
                "data":{
                    "access_token":"access_token###fhiojaspjdwefasfpodasf"
                }
            }
        },
        {
            "desc":"获取待审批的用户",
            "cat":"认证",
            "method":"GET",
            "url":"/user/approve.json",
            "parameters":{
                "access_token":"access_token###fhiojaspjdwefasfpodasf",
                "start": "开始页面###1",
                "count":"返回条数##20"
            },
            "return":{
                "code": "返回代码###1",
                "msg": "返回信息###成功",
                "data":{
                    "access_token":"access_token###fhiojaspjdwefasfpodasf"
                }
            }
        },
        {
            "desc":"审批用户",
            "cat":"认证",
            "method":"POST",
            "url":"/user/approve.json",
            "parameters":{
                "usernames":"用户名###[\"xiaoming\",\"xiaofang\"]"
            },
            "return":{
                "code": "返回代码###1",
                "msg": "返回信息###成功",
                "data":{

                }
            }
        },
        {
            "desc":"打卡",
            "cat":"签到",
            "method":"POST",
            "url":"/attence.json",
            "parameters":{
                "username":"usename###demo12",
                "access_token":"access_token###fhiojaspjdwefasfpodasf"

            },
            "return":{

                "code": "返回代码###1",
                "msg": "返回信息###成功",
                "data":{
                    "id":"增加的打开记录id###122"
                }
            }
        },
        {
            "desc": "获取打卡记录",
            "cat": "签到",
            "method": "GET",
            "url": "/attence.json",
            "parameters": {
                "period": "获取打卡日期(格式:201501)###201502",
                "username": "usename###demo12",
                "access_token":"access_token###fhiojaspjdwefasfpodasf"
            },
            "return": {
                "code": "返回代码###1",
                "msg": "返回信息###成功",
                "data": [{"1797329827":"上班"},{"1797329840":"下班"}]

            }
        },
        {
            "desc": "发布公告",
            "cat": "公告",
            "method": "POST",
            "url": "/notice.json",
            "parameters": {
                "access_token":"access_token###fhiojaspjdwefasfpodasf",
                "title":"title###标题",
                "content":"content###内容",
                "tag":"重要性###general,important"
            },
            "return": {

                "code": "返回代码###1",
                "msg": "返回信息###成功",
                "data": {

                }

            }
        },
        {
            "desc": "获取公告",
            "cat": "公告",
            "method": "GET",
            "url": "/notice.json",
            "parameters": {
                "start": "开始页面###1",
                "count":"返回条数##122",
                "access_token":"access_token###fhiojaspjdwefasfpodasf"
            },
            "return": {
                "code": "返回代码###1",
                "msg": "返回信息###成功",
                "data": [
                    {
                        "ctime":"发布的时间###1820189282","title":"公告的标题###公告标题","content":"公告的标题###公告内容"
                    }
                ]

            }
        },
        {
            "desc": "发布任务",
            "cat": "任务",
            "method": "POST",
            "url": "/assignment.json",
            "parameters": {
                "receiver": "接受者###[\"wz\",\"changsheng\"]",
                "title":"title###标题",
                "content":"content###内容",

                "access_token":"access_token###fhiojaspjdwefasfpodasf"
            },
            "return": {
                "code": "返回代码###1",
                "msg": "返回信息###成功",
                "data": {
                   "id":"任务ID###12"
                }

            }
        },
        {
            "desc": "获取任务列表",
            "cat": "任务",
            "method": "GET",
            "url": "/assignment.json",
            "parameters": {
                "start": "开始页面###1",
                "count":"返回条数###122",
                "status":"类型状态###do",
                "access_token":"access_token###fhiojaspjdwefasfpodasf"
            },
            "return": {
                "code": "返回代码###1",
                "msg": "返回信息###成功",
                "data": [
                    {
                        "status":"任务状态###undo,todo,done","ctime":"发布的时间###1820189282","title":"任务的标题###公告标题","content":"任务的标题###公告内容"
                    }
                ]
            }
        },
        {
            "desc": "发布留言",
            "cat": "留言",
            "method": "POST",
            "url": "/comment.json",
            "parameters": {
                "receiver": "接受者###[\"wz\",\"changsheng\"]",
                "title":"title###标题",
                "content":"content###内容",
                "assign_id":"任务ID###12",
                "access_token":"access_token###fhiojaspjdwefasfpodasf"
            },
            "return": {
                "code": "返回代码###1",
                "msg": "返回信息###成功",
                "data": {
                    "id":"任务ID###12"
                }

            }
        },{
            "desc": "留言列表",
            "cat": "留言",
            "method": "GET",
            "url": "/comment.json",
            "parameters": {
                "receiver": "接受者###[\"wz\",\"changsheng\"]",
                "title":"title###标题",
                "content":"content###内容",
                "access_token":"access_token###fhiojaspjdwefasfpodasf"
            },
            "return": {
                "code": "返回代码###1",
                "msg": "返回信息###成功",
                "data": {
                    "id":"任务ID###12"
                }

            }
        }



    ]
}
