
{
    "locationGroups": [
        {
            "id": 1,
            "name": "AU - NSW",
            "editable": false,
            "children": [1, 2],
            "subGroups": [2,3]
        },
        {
            "id": 2,
            "type": "group",
            "name": "AU - QLD",
            "editable": false,
            "children": [4]
        },
        {
            "id": 3,
            "type": "group",
            "name": "AU - SA",
            "editable": false,
            "children": [3]
        },
        {
            "id": 4,
            "type": "group",
            "name": "Metropolitan",
            "editable": true,
            "children": [2]
        }
    ],
    "locations": [
        {
            "id": 1,
            "name": "Neutral Bay"
        },
        {
            "id": 2,
            "name": "North Sydney",
            "selected": true
        },
        {
            "id": 3,
            "name": "Valley View"
        },
        {
            "id": 4,
            "name": "eee Valley View"
        }
    ]
}