{
    "action":"/admin/page/form",
    "target":"food.html",
    "fields":[
        {

            "download_dish_temp":"dish_temp_content",
            "dish_file": {
                "type":"file",
                 "ext":"xlsx,xls,csv,txt"
            }

        }
    ]
}