{
    "action":"/admin/page/form",
    "target":"shop.html",
    "fields":[
        {
            "download_temp":"dinning_temp_content",
            "download_spec":"img_upload_spec",
            "info_file": {
                "type":"file",
                "ext":"xlsx,xls,csv,txt"
            },
            "imgs_file": {
              "type":"file",
              "ext":"zip"
            }
        }

    ]
}


